{
  "type": "service_account",
  "project_id": "disco-technique-306105",
  "private_key_id": "30431e63f2c60eca1f89a2719401be9202f1cd9b",
  "private_key": "-----BEGIN PRIVATE KEY-----\nMIIEvgIBADANBgkqhkiG9w0BAQEFAASCBKgwggSkAgEAAoIBAQCmh3FCVs/6j5EV\n3ftAdFHlB3FxjwkOay88FbEExWD1R+ivUTurtDSj86cTWwDb/vd5/pZVYP9e9Bah\nrfJeN7JH2hO+UTM8ioUrt2vkh8tZ5OjzZZzitHDocCgou1K70LgxAyxeFzVGs1n+\nkrqJdDRiCSsC0cQexTfgmY0mW2Zj4ZErvwlMXCQ2N06j3OY0uwM9XlO5VCMEvetC\nPFKwzPPp3LbZ0g4jrMnj3zsYNRzf8oJsBZTvy2rXVSVDgotZiQDs3bzDusi+Esed\nfVAKHxdv8qfi7pdIO9z7ezWmK9vbeWueLlQaH7DlTE1IM/pFs4Qu7moPY4i4ZcaN\nK/iBy+tbAgMBAAECggEAOUXQvpOT0OVKbT5cmJTIy5+NNRSP9U0IwD3nlS/7AjC6\nhn1GK+38wrxcJEyClabxXxwfgPqsqXACTpXACwZVwt9uNeDAYdx0I45gRYcseVzA\nf2FdnRyYzmAwd53BPQXyKy0ft7Z8pLWvSF4XWInGMEdd6wjQzhJe/thgkqYRp1zQ\nZmbtkidRLFdaQ9IMT+A4j1EvomoTyHH41nl8CD5Hk6rdQi/FYcHQrCxYhdeLfYQk\nyCxG0Xdyol5NgnYklkBG4St5qI2K4wdgUzylatZ0N/7dXpWjzjctfuKQCIqFflrg\nA7UiqGnILInDJq0oKOXTF14abto5B2B1RrYEUp0MZQKBgQDkziYU0HLV2513gUui\nuKZVHVv4WmXj+eUdwSY2APhXhg625Oo4hKRJ+BQFOEZ02qfuXoA1icHdDcc6c93X\nqKPY8vEO8FqzuhXjI3vkeiWFiF+L3jFH0uLPlH+793Cvg49ABNK7NoFncFvZHP34\npJI/TWS55oWaFIIba5PhudYbXwKBgQC6UmrqlD25pNjKPHoO2+gPx4Ad/Hp/DJlJ\nWFSurBcaCs+egX4agwohXgCYgn8IjNzV4/7+E4CoHHeg/OK1oPNFwF7N9OmpB7XS\njXkkMhNOYIvJATCn+jNgQcpZETyvrmIpY5aNNnUXUGENoYQyEenZPwtysQdSTdkh\n4ZVrZUAthQKBgQCUp0bgkQl63kNxSCSu5M7UT83YDktSkaIE8d90iK7Qln1q4FE4\nRR1EHZRMS+KiuwkN+oHLxuOYTgJZfLvuCFfjdPue3BPh3w2nU/+DUsSb/B0vjz1v\nT5kiinVu1vV0YsIoMroC/geW/838wjRTXgDSdeLyUM4ObDKXxA4BQq7TewKBgQCJ\n8UrGsUmhj7IQyAV1yslcJU9s4+es+B7kdkj7qNzRov9jUmuSJUHywi2eu75hDijR\nEiNO6BFwZOMMhS0zWx3AnlOSF6iGQ/cREzyE164DcOcMwZzMQCiZMxwkJObRCkIS\ncnCby52UzSWNee7tQuXmuQ44s2fAP3Jp6yE8iZGiIQKBgAgm63oNN2FsDib1J6MW\njnqlZjl5IhZRO+26q5osdTt2etilC9/Bvig0tOKSVS+m5qxlNPFskkvCmuGQzhDx\nb9x36p1Q/3Cgzli5nBk6v8WrBZQlup7XVcj8UZoBjQtfhTY2x+4AuOKhsWyak4HW\nZnRws+qR8RAgAx6oHph2+ReT\n-----END PRIVATE KEY-----\n",
  "client_email": "translate-api@disco-technique-306105.iam.gserviceaccount.com",
  "client_id": "111032772703581964919",
  "auth_uri": "https://accounts.google.com/o/oauth2/auth",
  "token_uri": "https://oauth2.googleapis.com/token",
  "auth_provider_x509_cert_url": "https://www.googleapis.com/oauth2/v1/certs",
  "client_x509_cert_url": "https://www.googleapis.com/robot/v1/metadata/x509/translate-api%40disco-technique-306105.iam.gserviceaccount.com"
}
